…
## Tibbles

Tibbles are a modern take on data frames. They keep the features that have stood the test of time, and drop the features that used to be convenient but are now frustrating (i.e. converting character vectors to factors).

#### Creating

``tibble()`` is a nice way to create data frames. It encapsulates best practices for data frames:

It never changes an input's type (i.e., no more stringsAsFactors = FALSE!).

```{r}
tibble(x = letters)
#> # A tibble: 26 x 1
#>   x    
#>   <chr>
#> 1 a    
#> 2 b    
#> 3 c    
#> 4 d    
#> # ... with 22 more rows
```
…
It never adjusts the names of variables:

names(data.frame(`crazy name` = 1))
#> [1] "crazy.name"
names(tibble(`crazy name` = 1))
#> [1] "crazy name"
It evaluates its arguments lazily and sequentially:
```{r}
tibble(x = 1:5, y = x ^ 2)
#> # A tibble: 5 x 2
#>       x     y
#>   <int> <dbl>
#> 1     1  1.00
#> 2     2  4.00
#> 3     3  9.00
#> 4     4 16.0 
#> # ... with 1 more row
```
…
The speed of as.data.frame() is not usually a bottleneck when used interactively, but can be a problem when combining thousands of messy inputs into one tidy data frame.

#### Tibbles vs data frames

There are three key differences between tibbles and data frames: printing, subsetting, and recycling rules.

#### Printing

When you print a tibble, it only shows the first ten rows and all the columns that fit on one screen. It also prints an abbreviated description of the column type:
```{r}
tibble(x = 1:1000)
#> # A tibble: 1,000 x 1
#>       x
#>   <int>
#> 1     1
#> 2     2
#> 3     3
#> 4     4
#> # ... with 996 more rows
```
…
